# Blender 3.3.0
# www.blender.org
mtllib tile-04.mtl
o Cube
v -0.399995 0.000000 0.499994
v -0.499994 0.000000 0.399995
v -0.419504 0.000000 0.498073
v -0.438263 0.000000 0.492382
v -0.455552 0.000000 0.483141
v -0.470705 0.000000 0.470705
v -0.483141 0.000000 0.455552
v -0.492382 0.000000 0.438263
v -0.498073 0.000000 0.419504
v -0.399995 0.000000 -0.499994
v -0.499994 0.000000 -0.399995
v -0.419504 0.000000 -0.498073
v -0.438263 0.000000 -0.492382
v -0.455552 0.000000 -0.483141
v -0.470705 0.000000 -0.470705
v -0.483141 0.000000 -0.455552
v -0.492382 0.000000 -0.438263
v -0.498073 0.000000 -0.419504
v 0.399995 0.000000 0.499994
v 0.499994 0.000000 0.399995
v 0.419504 0.000000 0.498073
v 0.438263 0.000000 0.492382
v 0.455552 0.000000 0.483141
v 0.470705 0.000000 0.470705
v 0.483141 0.000000 0.455552
v 0.492382 0.000000 0.438263
v 0.498073 0.000000 0.419504
v 0.499994 0.000000 -0.399995
v 0.399995 0.000000 -0.499994
v 0.498073 0.000000 -0.419504
v 0.492382 0.000000 -0.438263
v 0.483141 0.000000 -0.455552
v 0.470705 0.000000 -0.470705
v 0.455552 0.000000 -0.483141
v 0.438263 0.000000 -0.492382
v 0.419504 0.000000 -0.498073
v -0.380000 0.025000 0.475000
v -0.475000 0.025000 0.380000
v -0.398534 0.025000 0.473175
v -0.416355 0.025000 0.467769
v -0.432779 0.025000 0.458990
v -0.447175 0.025000 0.447175
v -0.458990 0.025000 0.432779
v -0.467769 0.025000 0.416355
v -0.473175 0.025000 0.398534
v -0.380000 0.025000 -0.475000
v -0.475000 0.025000 -0.380000
v -0.398534 0.025000 -0.473175
v -0.416355 0.025000 -0.467769
v -0.432779 0.025000 -0.458990
v -0.447175 0.025000 -0.447175
v -0.458990 0.025000 -0.432779
v -0.467769 0.025000 -0.416355
v -0.473175 0.025000 -0.398534
v 0.380000 0.025000 0.475000
v 0.475000 0.025000 0.380000
v 0.398534 0.025000 0.473175
v 0.416355 0.025000 0.467769
v 0.432779 0.025000 0.458990
v 0.447175 0.025000 0.447175
v 0.458990 0.025000 0.432779
v 0.467769 0.025000 0.416355
v 0.473175 0.025000 0.398534
v 0.475000 0.025000 -0.380000
v 0.380000 0.025000 -0.475000
v 0.473175 0.025000 -0.398534
v 0.467769 0.025000 -0.416355
v 0.458990 0.025000 -0.432779
v 0.447175 0.025000 -0.447175
v 0.432779 0.025000 -0.458990
v 0.416355 0.025000 -0.467769
v 0.398534 0.025000 -0.473175
v 0.419184 0.002778 -0.497693
v 0.418361 0.005556 -0.496716
v 0.417036 0.008333 -0.495143
v 0.415209 0.011111 -0.492973
v 0.412879 0.013889 -0.490206
v 0.410046 0.016667 -0.486843
v 0.406711 0.019444 -0.482884
v 0.402874 0.022222 -0.478327
v 0.384138 0.022222 -0.480173
v 0.387797 0.019444 -0.484746
v 0.390977 0.016667 -0.488721
v 0.393678 0.013889 -0.492097
v 0.395900 0.011111 -0.494874
v 0.397642 0.008333 -0.497053
v 0.398906 0.005556 -0.498632
v 0.399690 0.002778 -0.499613
v 0.437929 0.002778 0.492007
v 0.437069 0.005556 0.491041
v 0.435685 0.008333 0.489486
v 0.433776 0.011111 0.487340
v 0.431341 0.013889 0.484606
v 0.428382 0.016667 0.481281
v 0.424898 0.019444 0.477367
v 0.420889 0.022222 0.472862
v 0.437492 0.022222 0.463988
v 0.441659 0.019444 0.468408
v 0.445281 0.016667 0.472248
v 0.448357 0.013889 0.475511
v 0.450887 0.011111 0.478194
v 0.452872 0.008333 0.480299
v 0.454311 0.005556 0.481825
v 0.455204 0.002778 0.482773
v 0.437929 0.002778 -0.492007
v 0.437069 0.005556 -0.491041
v 0.435685 0.008333 -0.489486
v 0.433776 0.011111 -0.487340
v 0.431341 0.013889 -0.484606
v 0.428382 0.016667 -0.481281
v 0.424898 0.019444 -0.477367
v 0.420889 0.022222 -0.472862
v 0.419184 0.002778 0.497693
v 0.418361 0.005556 0.496716
v 0.417036 0.008333 0.495143
v 0.415209 0.011111 0.492973
v 0.412879 0.013889 0.490206
v 0.410046 0.016667 0.486843
v 0.406711 0.019444 0.482884
v 0.402874 0.022222 0.478327
v 0.455204 0.002778 -0.482773
v 0.454311 0.005556 -0.481825
v 0.452872 0.008333 -0.480299
v 0.450887 0.011111 -0.478194
v 0.448357 0.013889 -0.475511
v 0.445281 0.016667 -0.472248
v 0.441659 0.019444 -0.468407
v 0.437492 0.022222 -0.463988
v 0.399690 0.002778 0.499613
v 0.398906 0.005556 0.498632
v 0.397642 0.008333 0.497053
v 0.395900 0.011111 0.494874
v 0.393678 0.013889 0.492097
v 0.390977 0.016667 0.488721
v 0.387797 0.019444 0.484746
v 0.384138 0.022222 0.480173
v 0.470346 0.002778 -0.470346
v 0.469423 0.005556 -0.469423
v 0.467936 0.008333 -0.467936
v 0.465885 0.011111 -0.465885
v 0.463271 0.013889 -0.463271
v 0.460093 0.016667 -0.460093
v 0.456351 0.019444 -0.456351
v 0.452045 0.022222 -0.452045
v -0.499613 0.002778 -0.399690
v -0.498632 0.005556 -0.398906
v -0.497053 0.008333 -0.397642
v -0.494874 0.011111 -0.395900
v -0.492097 0.013889 -0.393678
v -0.488721 0.016667 -0.390977
v -0.484746 0.019444 -0.387797
v -0.480173 0.022222 -0.384138
v -0.480173 0.022222 0.384138
v -0.484746 0.019444 0.387797
v -0.488721 0.016667 0.390977
v -0.492097 0.013889 0.393678
v -0.494874 0.011111 0.395900
v -0.497053 0.008333 0.397642
v -0.498632 0.005556 0.398906
v -0.499613 0.002778 0.399690
v -0.399690 0.002778 0.499613
v -0.398906 0.005556 0.498632
v -0.397642 0.008333 0.497053
v -0.395900 0.011111 0.494874
v -0.393678 0.013889 0.492097
v -0.390977 0.016667 0.488721
v -0.387797 0.019444 0.484746
v -0.384138 0.022222 0.480173
v 0.482773 0.002778 -0.455204
v 0.481825 0.005556 -0.454311
v 0.480299 0.008333 -0.452872
v 0.478194 0.011111 -0.450887
v 0.475511 0.013889 -0.448357
v 0.472248 0.016667 -0.445281
v 0.468407 0.019444 -0.441659
v 0.463988 0.022222 -0.437492
v -0.497693 0.002778 -0.419184
v -0.496716 0.005556 -0.418361
v -0.495143 0.008333 -0.417036
v -0.492973 0.011111 -0.415209
v -0.490206 0.013889 -0.412879
v -0.486843 0.016667 -0.410046
v -0.482884 0.019444 -0.406711
v -0.478327 0.022222 -0.402874
v -0.419184 0.002778 0.497693
v -0.418361 0.005556 0.496716
v -0.417036 0.008333 0.495143
v -0.415209 0.011111 0.492973
v -0.412879 0.013889 0.490206
v -0.410046 0.016667 0.486843
v -0.406711 0.019444 0.482884
v -0.402874 0.022222 0.478327
v 0.492007 0.002778 -0.437929
v 0.491041 0.005556 -0.437069
v 0.489486 0.008333 -0.435685
v 0.487340 0.011111 -0.433776
v 0.484606 0.013889 -0.431341
v 0.481281 0.016667 -0.428382
v 0.477367 0.019444 -0.424898
v 0.472862 0.022222 -0.420889
v -0.492007 0.002778 -0.437929
v -0.491041 0.005556 -0.437069
v -0.489486 0.008333 -0.435685
v -0.487340 0.011111 -0.433776
v -0.484606 0.013889 -0.431341
v -0.481281 0.016667 -0.428382
v -0.477367 0.019444 -0.424898
v -0.472862 0.022222 -0.420889
v -0.437929 0.002778 0.492007
v -0.437069 0.005556 0.491041
v -0.435685 0.008333 0.489486
v -0.433776 0.011111 0.487340
v -0.431341 0.013889 0.484606
v -0.428382 0.016667 0.481281
v -0.424898 0.019444 0.477367
v -0.420889 0.022222 0.472862
v 0.497693 0.002778 -0.419184
v 0.496716 0.005556 -0.418361
v 0.495143 0.008333 -0.417036
v 0.492973 0.011111 -0.415209
v 0.490206 0.013889 -0.412879
v 0.486843 0.016667 -0.410046
v 0.482884 0.019444 -0.406711
v 0.478327 0.022222 -0.402874
v -0.482773 0.002778 -0.455204
v -0.481825 0.005556 -0.454311
v -0.480299 0.008333 -0.452872
v -0.478194 0.011111 -0.450887
v -0.475511 0.013889 -0.448357
v -0.472248 0.016667 -0.445281
v -0.468407 0.019444 -0.441659
v -0.463988 0.022222 -0.437492
v -0.455204 0.002778 0.482773
v -0.454311 0.005556 0.481825
v -0.452872 0.008333 0.480299
v -0.450887 0.011111 0.478194
v -0.448357 0.013889 0.475511
v -0.445281 0.016667 0.472248
v -0.441659 0.019444 0.468407
v -0.437492 0.022222 0.463988
v 0.499613 0.002778 -0.399690
v 0.498632 0.005556 -0.398906
v 0.497053 0.008333 -0.397642
v 0.494874 0.011111 -0.395900
v 0.492097 0.013889 -0.393678
v 0.488721 0.016667 -0.390977
v 0.484746 0.019444 -0.387797
v 0.480173 0.022222 -0.384138
v -0.470346 0.002778 -0.470346
v -0.469423 0.005556 -0.469423
v -0.467936 0.008333 -0.467936
v -0.465885 0.011111 -0.465885
v -0.463271 0.013889 -0.463271
v -0.460093 0.016667 -0.460093
v -0.456351 0.019444 -0.456351
v -0.452045 0.022222 -0.452045
v -0.470346 0.002778 0.470346
v -0.469423 0.005556 0.469423
v -0.467936 0.008333 0.467936
v -0.465885 0.011111 0.465885
v -0.463271 0.013889 0.463271
v -0.460093 0.016667 0.460093
v -0.456351 0.019444 0.456351
v -0.452045 0.022222 0.452045
v 0.499613 0.002778 0.399690
v 0.498632 0.005556 0.398906
v 0.497053 0.008333 0.397642
v 0.494874 0.011111 0.395900
v 0.492097 0.013889 0.393678
v 0.488721 0.016667 0.390977
v 0.484746 0.019444 0.387797
v 0.480173 0.022222 0.384138
v -0.455204 0.002778 -0.482773
v -0.454311 0.005556 -0.481825
v -0.452872 0.008333 -0.480299
v -0.450887 0.011111 -0.478194
v -0.448357 0.013889 -0.475511
v -0.445281 0.016667 -0.472248
v -0.441659 0.019444 -0.468407
v -0.437492 0.022222 -0.463988
v -0.482773 0.002778 0.455204
v -0.481825 0.005556 0.454311
v -0.480299 0.008333 0.452872
v -0.478194 0.011111 0.450887
v -0.475511 0.013889 0.448357
v -0.472248 0.016667 0.445281
v -0.468407 0.019444 0.441659
v -0.463988 0.022222 0.437492
v 0.497693 0.002778 0.419184
v 0.496716 0.005556 0.418361
v 0.495143 0.008333 0.417036
v 0.492973 0.011111 0.415209
v 0.490206 0.013889 0.412879
v 0.486843 0.016667 0.410046
v 0.482884 0.019444 0.406711
v 0.478327 0.022222 0.402873
v -0.437929 0.002778 -0.492007
v -0.437069 0.005556 -0.491041
v -0.435685 0.008333 -0.489486
v -0.433776 0.011111 -0.487340
v -0.431341 0.013889 -0.484606
v -0.428382 0.016667 -0.481281
v -0.424898 0.019444 -0.477367
v -0.420889 0.022222 -0.472862
v -0.492007 0.002778 0.437929
v -0.491041 0.005556 0.437069
v -0.489486 0.008333 0.435685
v -0.487340 0.011111 0.433776
v -0.484606 0.013889 0.431341
v -0.481281 0.016667 0.428382
v -0.477367 0.019444 0.424898
v -0.472862 0.022222 0.420889
v 0.492007 0.002778 0.437929
v 0.491041 0.005556 0.437069
v 0.489486 0.008333 0.435685
v 0.487340 0.011111 0.433776
v 0.484606 0.013889 0.431341
v 0.481281 0.016667 0.428382
v 0.477367 0.019444 0.424898
v 0.472862 0.022222 0.420889
v -0.419184 0.002778 -0.497693
v -0.418361 0.005556 -0.496716
v -0.417036 0.008333 -0.495143
v -0.415209 0.011111 -0.492973
v -0.412879 0.013889 -0.490206
v -0.410046 0.016667 -0.486843
v -0.406711 0.019444 -0.482884
v -0.402874 0.022222 -0.478327
v -0.497693 0.002778 0.419184
v -0.496716 0.005556 0.418361
v -0.495143 0.008333 0.417036
v -0.492973 0.011111 0.415209
v -0.490206 0.013889 0.412879
v -0.486843 0.016667 0.410046
v -0.482884 0.019444 0.406711
v -0.478327 0.022222 0.402873
v 0.482773 0.002778 0.455204
v 0.481825 0.005556 0.454311
v 0.480299 0.008333 0.452872
v 0.478194 0.011111 0.450887
v 0.475511 0.013889 0.448357
v 0.472248 0.016667 0.445281
v 0.468407 0.019444 0.441659
v 0.463988 0.022222 0.437492
v -0.399690 0.002778 -0.499613
v -0.398906 0.005556 -0.498632
v -0.397642 0.008333 -0.497053
v -0.395900 0.011111 -0.494874
v -0.393678 0.013889 -0.492097
v -0.390977 0.016667 -0.488721
v -0.387797 0.019444 -0.484746
v -0.384138 0.022222 -0.480173
v 0.470346 0.002778 0.470346
v 0.469423 0.005556 0.469423
v 0.467936 0.008333 0.467936
v 0.465885 0.011111 0.465885
v 0.463271 0.013889 0.463271
v 0.460093 0.016667 0.460093
v 0.456351 0.019444 0.456351
v 0.452045 0.022222 0.452045
vn -0.0000 1.0000 -0.0000
vn -0.0000 -1.0000 -0.0000
vn -0.0438 -0.8944 0.4452
vn -0.1822 -0.9223 -0.3408
vn -0.1188 -0.9124 0.3918
vn -0.1188 -0.9124 -0.3918
vn -0.1822 -0.9223 0.3408
vn -0.0438 -0.8944 -0.4452
vn -0.2383 -0.9268 0.2904
vn 0.4731 -0.8810 -0.0000
vn -0.0000 -0.8810 -0.4731
vn -0.2904 -0.9268 0.2383
vn 0.4452 -0.8944 0.0438
vn 0.0438 -0.8944 -0.4452
vn -0.3408 -0.9223 0.1822
vn 0.3918 -0.9124 0.1188
vn 0.1188 -0.9124 -0.3918
vn -0.3918 -0.9124 0.1188
vn 0.3408 -0.9223 0.1822
vn 0.1822 -0.9223 -0.3408
vn -0.4452 -0.8944 0.0438
vn 0.2904 -0.9268 0.2383
vn 0.2383 -0.9268 -0.2904
vn -0.4731 -0.8810 -0.0000
vn 0.2383 -0.9268 0.2904
vn 0.2904 -0.9268 -0.2383
vn -0.4452 -0.8944 -0.0438
vn 0.1822 -0.9223 0.3408
vn 0.3408 -0.9223 -0.1822
vn -0.3918 -0.9124 -0.1188
vn 0.1188 -0.9124 0.3918
vn 0.3918 -0.9124 -0.1188
vn -0.3408 -0.9223 -0.1822
vn 0.0438 -0.8944 0.4452
vn 0.4452 -0.8944 -0.0438
vn -0.2904 -0.9268 -0.2383
vn -0.0000 -0.8810 0.4731
vn -0.2383 -0.9268 -0.2904
vn -0.6241 -0.1791 -0.7605
vn -0.5747 -0.4236 -0.7002
vn -0.5067 -0.6017 -0.6174
vn -0.4399 -0.7205 -0.5360
vn -0.3822 -0.7981 -0.4657
vn -0.3347 -0.8495 -0.4078
vn -0.2960 -0.8845 -0.3606
vn -0.2643 -0.9091 -0.3221
vn -0.0000 -0.1361 0.9907
vn -0.0000 -0.3329 0.9430
vn -0.0000 -0.4943 0.8693
vn -0.0000 -0.6171 0.7869
vn -0.0000 -0.7070 0.7072
vn -0.0000 -0.7722 0.6354
vn -0.0000 -0.8197 0.5728
vn -0.0000 -0.8547 0.5191
vn -0.7605 -0.1791 -0.6241
vn -0.7002 -0.4237 -0.5746
vn -0.6174 -0.6017 -0.5067
vn -0.5360 -0.7205 -0.4399
vn -0.4657 -0.7981 -0.3822
vn -0.4078 -0.8495 -0.3347
vn -0.3606 -0.8845 -0.2960
vn -0.3221 -0.9091 -0.2643
vn 0.9845 -0.1459 -0.0970
vn 0.9306 -0.3544 -0.0917
vn 0.8494 -0.5210 -0.0837
vn 0.7613 -0.6440 -0.0750
vn 0.6784 -0.7317 -0.0668
vn 0.6054 -0.7937 -0.0596
vn 0.5429 -0.8381 -0.0535
vn 0.4900 -0.8704 -0.0483
vn 0.0970 -0.1459 0.9845
vn 0.0917 -0.3544 0.9306
vn 0.0837 -0.5210 0.8494
vn 0.0750 -0.6441 0.7613
vn 0.0668 -0.7317 0.6784
vn 0.0596 -0.7937 0.6054
vn 0.0535 -0.8381 0.5429
vn 0.0483 -0.8704 0.4900
vn -0.8686 -0.1734 -0.4643
vn -0.8035 -0.4122 -0.4295
vn -0.7127 -0.5890 -0.3810
vn -0.6220 -0.7089 -0.3325
vn -0.5426 -0.7884 -0.2900
vn -0.4764 -0.8415 -0.2547
vn -0.4222 -0.8780 -0.2257
vn -0.3776 -0.9037 -0.2019
vn 0.9443 -0.1623 -0.2864
vn 0.8815 -0.3892 -0.2674
vn 0.7911 -0.5626 -0.2400
vn 0.6978 -0.6843 -0.2117
vn 0.6137 -0.7673 -0.1862
vn 0.5421 -0.8240 -0.1645
vn 0.4825 -0.8636 -0.1464
vn 0.4330 -0.8918 -0.1314
vn 0.2864 -0.1623 0.9443
vn 0.2674 -0.3891 0.8815
vn 0.2400 -0.5626 0.7911
vn 0.2117 -0.6843 0.6978
vn 0.1862 -0.7673 0.6137
vn 0.1645 -0.8241 0.5421
vn 0.1464 -0.8636 0.4825
vn 0.1314 -0.8918 0.4330
vn -0.9443 -0.1623 -0.2864
vn -0.8815 -0.3892 -0.2674
vn -0.7911 -0.5626 -0.2400
vn -0.6978 -0.6843 -0.2117
vn -0.6137 -0.7673 -0.1862
vn -0.5421 -0.8240 -0.1645
vn -0.4825 -0.8636 -0.1464
vn -0.4330 -0.8918 -0.1314
vn 0.8686 -0.1734 -0.4643
vn 0.8035 -0.4122 -0.4295
vn 0.7127 -0.5890 -0.3810
vn 0.6220 -0.7089 -0.3325
vn 0.5426 -0.7884 -0.2900
vn 0.4764 -0.8415 -0.2547
vn 0.4222 -0.8780 -0.2257
vn 0.3776 -0.9037 -0.2019
vn 0.4643 -0.1734 0.8686
vn 0.4295 -0.4122 0.8035
vn 0.3810 -0.5890 0.7127
vn 0.3325 -0.7089 0.6220
vn 0.2900 -0.7883 0.5426
vn 0.2547 -0.8415 0.4764
vn 0.2257 -0.8780 0.4222
vn 0.2019 -0.9037 0.3776
vn -0.9845 -0.1459 -0.0970
vn -0.9306 -0.3544 -0.0917
vn -0.8494 -0.5210 -0.0837
vn -0.7613 -0.6440 -0.0750
vn -0.6784 -0.7317 -0.0668
vn -0.6054 -0.7937 -0.0596
vn -0.5429 -0.8381 -0.0535
vn -0.4900 -0.8704 -0.0483
vn 0.7605 -0.1791 -0.6241
vn 0.7002 -0.4237 -0.5746
vn 0.6174 -0.6017 -0.5067
vn 0.5360 -0.7205 -0.4399
vn 0.4657 -0.7981 -0.3822
vn 0.4078 -0.8495 -0.3347
vn 0.3606 -0.8845 -0.2960
vn 0.3221 -0.9091 -0.2643
vn 0.6241 -0.1791 0.7605
vn 0.5747 -0.4237 0.7002
vn 0.5067 -0.6017 0.6174
vn 0.4399 -0.7205 0.5360
vn 0.3822 -0.7981 0.4657
vn 0.3347 -0.8495 0.4078
vn 0.2960 -0.8845 0.3606
vn 0.2643 -0.9091 0.3221
vn -0.9907 -0.1361 -0.0000
vn -0.9430 -0.3329 -0.0000
vn -0.8693 -0.4943 -0.0000
vn -0.7869 -0.6171 -0.0000
vn -0.7072 -0.7070 -0.0000
vn -0.6354 -0.7722 -0.0000
vn -0.5728 -0.8197 -0.0000
vn -0.5191 -0.8547 -0.0000
vn 0.6241 -0.1791 -0.7605
vn 0.5747 -0.4237 -0.7002
vn 0.5067 -0.6017 -0.6174
vn 0.4399 -0.7205 -0.5360
vn 0.3822 -0.7981 -0.4657
vn 0.3347 -0.8495 -0.4078
vn 0.2960 -0.8845 -0.3606
vn 0.2643 -0.9091 -0.3221
vn 0.7605 -0.1791 0.6241
vn 0.7002 -0.4237 0.5746
vn 0.6174 -0.6017 0.5067
vn 0.5360 -0.7205 0.4399
vn 0.4657 -0.7981 0.3822
vn 0.4078 -0.8495 0.3347
vn 0.3606 -0.8845 0.2960
vn 0.3221 -0.9091 0.2643
vn -0.9845 -0.1459 0.0970
vn -0.9306 -0.3544 0.0917
vn -0.8494 -0.5210 0.0837
vn -0.7613 -0.6440 0.0750
vn -0.6784 -0.7317 0.0668
vn -0.6054 -0.7937 0.0596
vn -0.5429 -0.8381 0.0535
vn -0.4900 -0.8704 0.0483
vn 0.4643 -0.1734 -0.8686
vn 0.4295 -0.4122 -0.8035
vn 0.3810 -0.5890 -0.7127
vn 0.3325 -0.7089 -0.6220
vn 0.2900 -0.7883 -0.5426
vn 0.2547 -0.8415 -0.4764
vn 0.2257 -0.8780 -0.4222
vn 0.2019 -0.9037 -0.3776
vn 0.8686 -0.1734 0.4643
vn 0.8035 -0.4122 0.4295
vn 0.7127 -0.5890 0.3810
vn 0.6220 -0.7089 0.3325
vn 0.5426 -0.7884 0.2900
vn 0.4764 -0.8415 0.2547
vn 0.4222 -0.8780 0.2257
vn 0.3776 -0.9037 0.2019
vn -0.9443 -0.1623 0.2864
vn -0.8815 -0.3892 0.2674
vn -0.7911 -0.5626 0.2400
vn -0.6978 -0.6843 0.2117
vn -0.6137 -0.7673 0.1862
vn -0.5421 -0.8240 0.1645
vn -0.4825 -0.8636 0.1464
vn -0.4330 -0.8918 0.1314
vn 0.2864 -0.1623 -0.9443
vn 0.2674 -0.3891 -0.8815
vn 0.2400 -0.5626 -0.7911
vn 0.2117 -0.6843 -0.6978
vn 0.1862 -0.7673 -0.6137
vn 0.1645 -0.8240 -0.5421
vn 0.1464 -0.8636 -0.4825
vn 0.1314 -0.8918 -0.4330
vn 0.9443 -0.1623 0.2864
vn 0.8815 -0.3892 0.2674
vn 0.7911 -0.5626 0.2400
vn 0.6978 -0.6843 0.2117
vn 0.6137 -0.7673 0.1862
vn 0.5421 -0.8240 0.1645
vn 0.4825 -0.8636 0.1464
vn 0.4330 -0.8918 0.1314
vn -0.8686 -0.1734 0.4643
vn -0.8035 -0.4122 0.4295
vn -0.7127 -0.5890 0.3810
vn -0.6220 -0.7089 0.3325
vn -0.5426 -0.7884 0.2900
vn -0.4764 -0.8415 0.2547
vn -0.4222 -0.8780 0.2257
vn -0.3776 -0.9037 0.2019
vn 0.0970 -0.1459 -0.9845
vn 0.0917 -0.3544 -0.9306
vn 0.0837 -0.5210 -0.8494
vn 0.0750 -0.6441 -0.7613
vn 0.0668 -0.7317 -0.6784
vn 0.0596 -0.7937 -0.6054
vn 0.0535 -0.8381 -0.5429
vn 0.0483 -0.8704 -0.4900
vn 0.9845 -0.1459 0.0970
vn 0.9306 -0.3544 0.0917
vn 0.8494 -0.5210 0.0837
vn 0.7613 -0.6440 0.0750
vn 0.6784 -0.7317 0.0668
vn 0.6054 -0.7937 0.0596
vn 0.5429 -0.8381 0.0535
vn 0.4900 -0.8704 0.0483
vn -0.7605 -0.1791 0.6241
vn -0.7002 -0.4237 0.5746
vn -0.6174 -0.6017 0.5067
vn -0.5360 -0.7205 0.4399
vn -0.4657 -0.7981 0.3822
vn -0.4078 -0.8495 0.3347
vn -0.3606 -0.8845 0.2960
vn -0.3221 -0.9091 0.2643
vn -0.0000 -0.1361 -0.9907
vn -0.0000 -0.3329 -0.9430
vn -0.0000 -0.4943 -0.8693
vn -0.0000 -0.6171 -0.7869
vn -0.0000 -0.7070 -0.7072
vn -0.0000 -0.7722 -0.6354
vn -0.0000 -0.8197 -0.5728
vn -0.0000 -0.8547 -0.5191
vn 0.9907 -0.1361 -0.0000
vn 0.9430 -0.3329 -0.0000
vn 0.8693 -0.4943 -0.0000
vn 0.7869 -0.6171 -0.0000
vn 0.7072 -0.7070 -0.0000
vn 0.6354 -0.7722 -0.0000
vn 0.5728 -0.8197 -0.0000
vn 0.5191 -0.8547 -0.0000
vn -0.6241 -0.1791 0.7605
vn -0.5747 -0.4237 0.7002
vn -0.5067 -0.6017 0.6174
vn -0.4399 -0.7205 0.5360
vn -0.3822 -0.7981 0.4657
vn -0.3347 -0.8495 0.4078
vn -0.2960 -0.8845 0.3606
vn -0.2643 -0.9091 0.3221
vn -0.0970 -0.1459 -0.9845
vn -0.0917 -0.3544 -0.9306
vn -0.0837 -0.5210 -0.8494
vn -0.0750 -0.6441 -0.7613
vn -0.0668 -0.7317 -0.6784
vn -0.0596 -0.7937 -0.6054
vn -0.0535 -0.8381 -0.5429
vn -0.0483 -0.8704 -0.4900
vn -0.4643 -0.1734 0.8686
vn -0.4295 -0.4122 0.8035
vn -0.3810 -0.5890 0.7127
vn -0.3325 -0.7089 0.6220
vn -0.2900 -0.7883 0.5426
vn -0.2547 -0.8415 0.4764
vn -0.2257 -0.8780 0.4222
vn -0.2019 -0.9037 0.3776
vn -0.2864 -0.1623 -0.9443
vn -0.2674 -0.3891 -0.8815
vn -0.2400 -0.5626 -0.7911
vn -0.2117 -0.6843 -0.6978
vn -0.1862 -0.7673 -0.6137
vn -0.1645 -0.8241 -0.5421
vn -0.1464 -0.8636 -0.4825
vn -0.1314 -0.8918 -0.4330
vn -0.2864 -0.1623 0.9443
vn -0.2674 -0.3891 0.8815
vn -0.2400 -0.5626 0.7911
vn -0.2117 -0.6843 0.6978
vn -0.1862 -0.7673 0.6137
vn -0.1645 -0.8240 0.5421
vn -0.1464 -0.8636 0.4825
vn -0.1314 -0.8918 0.4330
vn -0.4643 -0.1734 -0.8686
vn -0.4295 -0.4122 -0.8035
vn -0.3810 -0.5890 -0.7127
vn -0.3325 -0.7089 -0.6220
vn -0.2900 -0.7883 -0.5426
vn -0.2547 -0.8415 -0.4764
vn -0.2257 -0.8780 -0.4222
vn -0.2019 -0.9037 -0.3776
vn -0.0970 -0.1459 0.9845
vn -0.0917 -0.3544 0.9306
vn -0.0837 -0.5210 0.8494
vn -0.0750 -0.6440 0.7613
vn -0.0668 -0.7317 0.6784
vn -0.0596 -0.7937 0.6054
vn -0.0535 -0.8381 0.5429
vn -0.0483 -0.8704 0.4900
vt 0.150000 0.750000
vt 0.125000 0.725000
vt 0.145123 0.749520
vt 0.140433 0.748097
vt 0.136111 0.745787
vt 0.132322 0.742678
vt 0.129213 0.738889
vt 0.126903 0.734567
vt 0.125480 0.729877
vt 0.150000 0.500000
vt 0.125000 0.525000
vt 0.145123 0.500480
vt 0.140433 0.501903
vt 0.136111 0.504213
vt 0.132322 0.507322
vt 0.129213 0.511111
vt 0.126903 0.515433
vt 0.125480 0.520123
vt 0.350000 0.750000
vt 0.375000 0.725000
vt 0.354877 0.749520
vt 0.359567 0.748097
vt 0.363889 0.745787
vt 0.367678 0.742678
vt 0.370787 0.738889
vt 0.373097 0.734567
vt 0.374520 0.729877
vt 0.375000 0.525000
vt 0.350000 0.500000
vt 0.374520 0.520123
vt 0.373097 0.515433
vt 0.370787 0.511111
vt 0.367678 0.507322
vt 0.363889 0.504213
vt 0.359567 0.501903
vt 0.354877 0.500480
vt 0.150000 0.750000
vt 0.125000 0.725000
vt 0.145123 0.749520
vt 0.140433 0.748097
vt 0.136111 0.745787
vt 0.132322 0.742678
vt 0.129213 0.738889
vt 0.126903 0.734567
vt 0.125480 0.729877
vt 0.150000 0.500000
vt 0.125000 0.525000
vt 0.145123 0.500480
vt 0.140433 0.501903
vt 0.136111 0.504213
vt 0.132322 0.507322
vt 0.129213 0.511111
vt 0.126903 0.515433
vt 0.125480 0.520123
vt 0.350000 0.750000
vt 0.375000 0.725000
vt 0.354877 0.749520
vt 0.359567 0.748097
vt 0.363889 0.745787
vt 0.367678 0.742678
vt 0.370787 0.738889
vt 0.373097 0.734567
vt 0.374520 0.729877
vt 0.375000 0.525000
vt 0.350000 0.500000
vt 0.374520 0.520123
vt 0.373097 0.515433
vt 0.370787 0.511111
vt 0.367678 0.507322
vt 0.363889 0.504213
vt 0.359567 0.501903
vt 0.354877 0.500480
vt 0.354877 0.500480
vt 0.354877 0.500480
vt 0.354877 0.500480
vt 0.354877 0.500480
vt 0.354877 0.500480
vt 0.354877 0.500480
vt 0.354877 0.500480
vt 0.354877 0.500480
vt 0.350000 0.500000
vt 0.350000 0.500000
vt 0.350000 0.500000
vt 0.350000 0.500000
vt 0.350000 0.500000
vt 0.350000 0.500000
vt 0.350000 0.500000
vt 0.350000 0.500000
vt 0.359567 0.748097
vt 0.359567 0.748097
vt 0.359567 0.748097
vt 0.359567 0.748097
vt 0.359567 0.748097
vt 0.359567 0.748097
vt 0.359567 0.748097
vt 0.359567 0.748097
vt 0.363889 0.745787
vt 0.363889 0.745787
vt 0.363889 0.745787
vt 0.363889 0.745787
vt 0.363889 0.745787
vt 0.363889 0.745787
vt 0.363889 0.745787
vt 0.363889 0.745787
vt 0.359567 0.501903
vt 0.359567 0.501903
vt 0.359567 0.501903
vt 0.359567 0.501903
vt 0.359567 0.501903
vt 0.359567 0.501903
vt 0.359567 0.501903
vt 0.359567 0.501903
vt 0.354877 0.749520
vt 0.354877 0.749520
vt 0.354877 0.749520
vt 0.354877 0.749520
vt 0.354877 0.749520
vt 0.354877 0.749520
vt 0.354877 0.749520
vt 0.354877 0.749520
vt 0.363889 0.504213
vt 0.363889 0.504213
vt 0.363889 0.504213
vt 0.363889 0.504213
vt 0.363889 0.504213
vt 0.363889 0.504213
vt 0.363889 0.504213
vt 0.363889 0.504213
vt 0.350000 0.750000
vt 0.350000 0.750000
vt 0.350000 0.750000
vt 0.350000 0.750000
vt 0.350000 0.750000
vt 0.350000 0.750000
vt 0.350000 0.750000
vt 0.350000 0.750000
vt 0.367678 0.507322
vt 0.367678 0.507322
vt 0.367678 0.507322
vt 0.367678 0.507322
vt 0.367678 0.507322
vt 0.367678 0.507322
vt 0.367678 0.507322
vt 0.367678 0.507322
vt 0.125000 0.525000
vt 0.125000 0.525000
vt 0.125000 0.525000
vt 0.125000 0.525000
vt 0.125000 0.525000
vt 0.125000 0.525000
vt 0.125000 0.525000
vt 0.125000 0.525000
vt 0.125000 0.725000
vt 0.125000 0.725000
vt 0.125000 0.725000
vt 0.125000 0.725000
vt 0.125000 0.725000
vt 0.125000 0.725000
vt 0.125000 0.725000
vt 0.125000 0.725000
vt 0.150000 0.750000
vt 0.150000 0.750000
vt 0.150000 0.750000
vt 0.150000 0.750000
vt 0.150000 0.750000
vt 0.150000 0.750000
vt 0.150000 0.750000
vt 0.150000 0.750000
vt 0.370787 0.511111
vt 0.370787 0.511111
vt 0.370787 0.511111
vt 0.370787 0.511111
vt 0.370787 0.511111
vt 0.370787 0.511111
vt 0.370787 0.511111
vt 0.370787 0.511111
vt 0.125480 0.520123
vt 0.125480 0.520123
vt 0.125480 0.520123
vt 0.125480 0.520123
vt 0.125480 0.520123
vt 0.125480 0.520123
vt 0.125480 0.520123
vt 0.125480 0.520123
vt 0.145123 0.749520
vt 0.145123 0.749520
vt 0.145123 0.749520
vt 0.145123 0.749520
vt 0.145123 0.749520
vt 0.145123 0.749520
vt 0.145123 0.749520
vt 0.145123 0.749520
vt 0.373097 0.515433
vt 0.373097 0.515433
vt 0.373097 0.515433
vt 0.373097 0.515433
vt 0.373097 0.515433
vt 0.373097 0.515433
vt 0.373097 0.515433
vt 0.373097 0.515433
vt 0.126903 0.515433
vt 0.126903 0.515433
vt 0.126903 0.515433
vt 0.126903 0.515433
vt 0.126903 0.515433
vt 0.126903 0.515433
vt 0.126903 0.515433
vt 0.126903 0.515433
vt 0.140433 0.748097
vt 0.140433 0.748097
vt 0.140433 0.748097
vt 0.140433 0.748097
vt 0.140433 0.748097
vt 0.140433 0.748097
vt 0.140433 0.748097
vt 0.140433 0.748097
vt 0.374520 0.520123
vt 0.374520 0.520123
vt 0.374520 0.520123
vt 0.374520 0.520123
vt 0.374520 0.520123
vt 0.374520 0.520123
vt 0.374520 0.520123
vt 0.374520 0.520123
vt 0.129213 0.511111
vt 0.129213 0.511111
vt 0.129213 0.511111
vt 0.129213 0.511111
vt 0.129213 0.511111
vt 0.129213 0.511111
vt 0.129213 0.511111
vt 0.129213 0.511111
vt 0.136111 0.745787
vt 0.136111 0.745787
vt 0.136111 0.745787
vt 0.136111 0.745787
vt 0.136111 0.745787
vt 0.136111 0.745787
vt 0.136111 0.745787
vt 0.136111 0.745787
vt 0.375000 0.525000
vt 0.375000 0.525000
vt 0.375000 0.525000
vt 0.375000 0.525000
vt 0.375000 0.525000
vt 0.375000 0.525000
vt 0.375000 0.525000
vt 0.375000 0.525000
vt 0.132322 0.507322
vt 0.132322 0.507322
vt 0.132322 0.507322
vt 0.132322 0.507322
vt 0.132322 0.507322
vt 0.132322 0.507322
vt 0.132322 0.507322
vt 0.132322 0.507322
vt 0.132322 0.742678
vt 0.132322 0.742678
vt 0.132322 0.742678
vt 0.132322 0.742678
vt 0.132322 0.742678
vt 0.132322 0.742678
vt 0.132322 0.742678
vt 0.132322 0.742678
vt 0.375000 0.725000
vt 0.375000 0.725000
vt 0.375000 0.725000
vt 0.375000 0.725000
vt 0.375000 0.725000
vt 0.375000 0.725000
vt 0.375000 0.725000
vt 0.375000 0.725000
vt 0.136111 0.504213
vt 0.136111 0.504213
vt 0.136111 0.504213
vt 0.136111 0.504213
vt 0.136111 0.504213
vt 0.136111 0.504213
vt 0.136111 0.504213
vt 0.136111 0.504213
vt 0.129213 0.738889
vt 0.129213 0.738889
vt 0.129213 0.738889
vt 0.129213 0.738889
vt 0.129213 0.738889
vt 0.129213 0.738889
vt 0.129213 0.738889
vt 0.129213 0.738889
vt 0.374520 0.729877
vt 0.374520 0.729877
vt 0.374520 0.729877
vt 0.374520 0.729877
vt 0.374520 0.729877
vt 0.374520 0.729877
vt 0.374520 0.729877
vt 0.374520 0.729877
vt 0.140433 0.501903
vt 0.140433 0.501903
vt 0.140433 0.501903
vt 0.140433 0.501903
vt 0.140433 0.501903
vt 0.140433 0.501903
vt 0.140433 0.501903
vt 0.140433 0.501903
vt 0.126903 0.734567
vt 0.126903 0.734567
vt 0.126903 0.734567
vt 0.126903 0.734567
vt 0.126903 0.734567
vt 0.126903 0.734567
vt 0.126903 0.734567
vt 0.126903 0.734567
vt 0.373097 0.734567
vt 0.373097 0.734567
vt 0.373097 0.734567
vt 0.373097 0.734567
vt 0.373097 0.734567
vt 0.373097 0.734567
vt 0.373097 0.734567
vt 0.373097 0.734567
vt 0.145123 0.500480
vt 0.145123 0.500480
vt 0.145123 0.500480
vt 0.145123 0.500480
vt 0.145123 0.500480
vt 0.145123 0.500480
vt 0.145123 0.500480
vt 0.145123 0.500480
vt 0.125480 0.729877
vt 0.125480 0.729877
vt 0.125480 0.729877
vt 0.125480 0.729877
vt 0.125480 0.729877
vt 0.125480 0.729877
vt 0.125480 0.729877
vt 0.125480 0.729877
vt 0.370787 0.738889
vt 0.370787 0.738889
vt 0.370787 0.738889
vt 0.370787 0.738889
vt 0.370787 0.738889
vt 0.370787 0.738889
vt 0.370787 0.738889
vt 0.370787 0.738889
vt 0.150000 0.500000
vt 0.150000 0.500000
vt 0.150000 0.500000
vt 0.150000 0.500000
vt 0.150000 0.500000
vt 0.150000 0.500000
vt 0.150000 0.500000
vt 0.150000 0.500000
vt 0.367678 0.742678
vt 0.367678 0.742678
vt 0.367678 0.742678
vt 0.367678 0.742678
vt 0.367678 0.742678
vt 0.367678 0.742678
vt 0.367678 0.742678
vt 0.367678 0.742678
s 0
f 11/11/1 2/2/1 9/9/1 8/8/1 7/7/1 6/6/1 5/5/1 4/4/1 3/3/1 1/1/1 19/19/1 21/21/1 22/22/1 23/23/1 24/24/1 25/25/1 26/26/1 27/27/1 20/20/1 28/28/1 30/30/1 31/31/1 32/32/1 33/33/1 34/34/1 35/35/1 36/36/1 29/29/1 10/10/1 12/12/1 13/13/1 14/14/1 15/15/1 16/16/1 17/17/1 18/18/1
f 47/47/2 54/54/2 53/53/2 52/52/2 51/51/2 50/50/2 49/49/2 48/48/2 46/46/2 65/65/2 72/72/2 71/71/2 70/70/2 69/69/2 68/68/2 67/67/2 66/66/2 64/64/2 56/56/2 63/63/2 62/62/2 61/61/2 60/60/2 59/59/2 58/58/2 57/57/2 55/55/2 37/37/2 39/39/2 40/40/2 41/41/2 42/42/2 43/43/2 44/44/2 45/45/2 38/38/2
f 81/81/3 80/80/3 72/72/3 65/65/3
f 97/97/4 96/96/4 58/58/4 59/59/4
f 80/80/5 112/112/5 71/71/5 72/72/5
f 96/96/6 120/120/6 57/57/6 58/58/6
f 112/112/7 128/128/7 70/70/7 71/71/7
f 120/120/8 136/136/8 55/55/8 57/57/8
f 128/128/9 144/144/9 69/69/9 70/70/9
f 153/153/10 152/152/10 47/47/10 38/38/10
f 136/136/11 168/168/11 37/37/11 55/55/11
f 144/144/12 176/176/12 68/68/12 69/69/12
f 152/152/13 184/184/13 54/54/13 47/47/13
f 168/168/14 192/192/14 39/39/14 37/37/14
f 176/176/15 200/200/15 67/67/15 68/68/15
f 184/184/16 208/208/16 53/53/16 54/54/16
f 192/192/17 216/216/17 40/40/17 39/39/17
f 200/200/18 224/224/18 66/66/18 67/67/18
f 208/208/19 232/232/19 52/52/19 53/53/19
f 216/216/20 240/240/20 41/41/20 40/40/20
f 224/224/21 248/248/21 64/64/21 66/66/21
f 232/232/22 256/256/22 51/51/22 52/52/22
f 240/240/23 264/264/23 42/42/23 41/41/23
f 248/248/24 272/272/24 56/56/24 64/64/24
f 256/256/25 280/280/25 50/50/25 51/51/25
f 264/264/26 288/288/26 43/43/26 42/42/26
f 272/272/27 296/296/27 63/63/27 56/56/27
f 280/280/28 304/304/28 49/49/28 50/50/28
f 288/288/29 312/312/29 44/44/29 43/43/29
f 296/296/30 320/320/30 62/62/30 63/63/30
f 304/304/31 328/328/31 48/48/31 49/49/31
f 312/312/32 336/336/32 45/45/32 44/44/32
f 320/320/33 344/344/33 61/61/33 62/62/33
f 328/328/34 352/352/34 46/46/34 48/48/34
f 336/336/35 153/153/35 38/38/35 45/45/35
f 344/344/36 360/360/36 60/60/36 61/61/36
f 352/352/37 81/81/37 65/65/37 46/46/37
f 360/360/38 97/97/38 59/59/38 60/60/38
f 24/24/39 23/23/39 104/104/39 353/353/39
f 353/353/40 104/104/40 103/103/40 354/354/40
f 354/354/41 103/103/41 102/102/41 355/355/41
f 355/355/42 102/102/42 101/101/42 356/356/42
f 356/356/43 101/101/43 100/100/43 357/357/43
f 357/357/44 100/100/44 99/99/44 358/358/44
f 358/358/45 99/99/45 98/98/45 359/359/45
f 359/359/46 98/98/46 97/97/46 360/360/46
f 10/10/47 29/29/47 88/88/47 345/345/47
f 345/345/48 88/88/48 87/87/48 346/346/48
f 346/346/49 87/87/49 86/86/49 347/347/49
f 347/347/50 86/86/50 85/85/50 348/348/50
f 348/348/51 85/85/51 84/84/51 349/349/51
f 349/349/52 84/84/52 83/83/52 350/350/52
f 350/350/53 83/83/53 82/82/53 351/351/53
f 351/351/54 82/82/54 81/81/54 352/352/54
f 25/25/55 24/24/55 353/353/55 337/337/55
f 337/337/56 353/353/56 354/354/56 338/338/56
f 338/338/57 354/354/57 355/355/57 339/339/57
f 339/339/58 355/355/58 356/356/58 340/340/58
f 340/340/59 356/356/59 357/357/59 341/341/59
f 341/341/60 357/357/60 358/358/60 342/342/60
f 342/342/61 358/358/61 359/359/61 343/343/61
f 343/343/62 359/359/62 360/360/62 344/344/62
f 9/9/63 2/2/63 160/160/63 329/329/63
f 329/329/64 160/160/64 159/159/64 330/330/64
f 330/330/65 159/159/65 158/158/65 331/331/65
f 331/331/66 158/158/66 157/157/66 332/332/66
f 332/332/67 157/157/67 156/156/67 333/333/67
f 333/333/68 156/156/68 155/155/68 334/334/68
f 334/334/69 155/155/69 154/154/69 335/335/69
f 335/335/70 154/154/70 153/153/70 336/336/70
f 12/12/71 10/10/71 345/345/71 321/321/71
f 321/321/72 345/345/72 346/346/72 322/322/72
f 322/322/73 346/346/73 347/347/73 323/323/73
f 323/323/74 347/347/74 348/348/74 324/324/74
f 324/324/75 348/348/75 349/349/75 325/325/75
f 325/325/76 349/349/76 350/350/76 326/326/76
f 326/326/77 350/350/77 351/351/77 327/327/77
f 327/327/78 351/351/78 352/352/78 328/328/78
f 26/26/79 25/25/79 337/337/79 313/313/79
f 313/313/80 337/337/80 338/338/80 314/314/80
f 314/314/81 338/338/81 339/339/81 315/315/81
f 315/315/82 339/339/82 340/340/82 316/316/82
f 316/316/83 340/340/83 341/341/83 317/317/83
f 317/317/84 341/341/84 342/342/84 318/318/84
f 318/318/85 342/342/85 343/343/85 319/319/85
f 319/319/86 343/343/86 344/344/86 320/320/86
f 8/8/87 9/9/87 329/329/87 305/305/87
f 305/305/88 329/329/88 330/330/88 306/306/88
f 306/306/89 330/330/89 331/331/89 307/307/89
f 307/307/90 331/331/90 332/332/90 308/308/90
f 308/308/91 332/332/91 333/333/91 309/309/91
f 309/309/92 333/333/92 334/334/92 310/310/92
f 310/310/93 334/334/93 335/335/93 311/311/93
f 311/311/94 335/335/94 336/336/94 312/312/94
f 13/13/95 12/12/95 321/321/95 297/297/95
f 297/297/96 321/321/96 322/322/96 298/298/96
f 298/298/97 322/322/97 323/323/97 299/299/97
f 299/299/98 323/323/98 324/324/98 300/300/98
f 300/300/99 324/324/99 325/325/99 301/301/99
f 301/301/100 325/325/100 326/326/100 302/302/100
f 302/302/101 326/326/101 327/327/101 303/303/101
f 303/303/102 327/327/102 328/328/102 304/304/102
f 27/27/103 26/26/103 313/313/103 289/289/103
f 289/289/104 313/313/104 314/314/104 290/290/104
f 290/290/105 314/314/105 315/315/105 291/291/105
f 291/291/106 315/315/106 316/316/106 292/292/106
f 292/292/107 316/316/107 317/317/107 293/293/107
f 293/293/108 317/317/108 318/318/108 294/294/108
f 294/294/109 318/318/109 319/319/109 295/295/109
f 295/295/110 319/319/110 320/320/110 296/296/110
f 7/7/111 8/8/111 305/305/111 281/281/111
f 281/281/112 305/305/112 306/306/112 282/282/112
f 282/282/113 306/306/113 307/307/113 283/283/113
f 283/283/114 307/307/114 308/308/114 284/284/114
f 284/284/115 308/308/115 309/309/115 285/285/115
f 285/285/116 309/309/116 310/310/116 286/286/116
f 286/286/117 310/310/117 311/311/117 287/287/117
f 287/287/118 311/311/118 312/312/118 288/288/118
f 14/14/119 13/13/119 297/297/119 273/273/119
f 273/273/120 297/297/120 298/298/120 274/274/120
f 274/274/121 298/298/121 299/299/121 275/275/121
f 275/275/122 299/299/122 300/300/122 276/276/122
f 276/276/123 300/300/123 301/301/123 277/277/123
f 277/277/124 301/301/124 302/302/124 278/278/124
f 278/278/125 302/302/125 303/303/125 279/279/125
f 279/279/126 303/303/126 304/304/126 280/280/126
f 20/20/127 27/27/127 289/289/127 265/265/127
f 265/265/128 289/289/128 290/290/128 266/266/128
f 266/266/129 290/290/129 291/291/129 267/267/129
f 267/267/130 291/291/130 292/292/130 268/268/130
f 268/268/131 292/292/131 293/293/131 269/269/131
f 269/269/132 293/293/132 294/294/132 270/270/132
f 270/270/133 294/294/133 295/295/133 271/271/133
f 271/271/134 295/295/134 296/296/134 272/272/134
f 6/6/135 7/7/135 281/281/135 257/257/135
f 257/257/136 281/281/136 282/282/136 258/258/136
f 258/258/137 282/282/137 283/283/137 259/259/137
f 259/259/138 283/283/138 284/284/138 260/260/138
f 260/260/139 284/284/139 285/285/139 261/261/139
f 261/261/140 285/285/140 286/286/140 262/262/140
f 262/262/141 286/286/141 287/287/141 263/263/141
f 263/263/142 287/287/142 288/288/142 264/264/142
f 15/15/143 14/14/143 273/273/143 249/249/143
f 249/249/144 273/273/144 274/274/144 250/250/144
f 250/250/145 274/274/145 275/275/145 251/251/145
f 251/251/146 275/275/146 276/276/146 252/252/146
f 252/252/147 276/276/147 277/277/147 253/253/147
f 253/253/148 277/277/148 278/278/148 254/254/148
f 254/254/149 278/278/149 279/279/149 255/255/149
f 255/255/150 279/279/150 280/280/150 256/256/150
f 28/28/151 20/20/151 265/265/151 241/241/151
f 241/241/152 265/265/152 266/266/152 242/242/152
f 242/242/153 266/266/153 267/267/153 243/243/153
f 243/243/154 267/267/154 268/268/154 244/244/154
f 244/244/155 268/268/155 269/269/155 245/245/155
f 245/245/156 269/269/156 270/270/156 246/246/156
f 246/246/157 270/270/157 271/271/157 247/247/157
f 247/247/158 271/271/158 272/272/158 248/248/158
f 5/5/159 6/6/159 257/257/159 233/233/159
f 233/233/160 257/257/160 258/258/160 234/234/160
f 234/234/161 258/258/161 259/259/161 235/235/161
f 235/235/162 259/259/162 260/260/162 236/236/162
f 236/236/163 260/260/163 261/261/163 237/237/163
f 237/237/164 261/261/164 262/262/164 238/238/164
f 238/238/165 262/262/165 263/263/165 239/239/165
f 239/239/166 263/263/166 264/264/166 240/240/166
f 16/16/167 15/15/167 249/249/167 225/225/167
f 225/225/168 249/249/168 250/250/168 226/226/168
f 226/226/169 250/250/169 251/251/169 227/227/169
f 227/227/170 251/251/170 252/252/170 228/228/170
f 228/228/171 252/252/171 253/253/171 229/229/171
f 229/229/172 253/253/172 254/254/172 230/230/172
f 230/230/173 254/254/173 255/255/173 231/231/173
f 231/231/174 255/255/174 256/256/174 232/232/174
f 30/30/175 28/28/175 241/241/175 217/217/175
f 217/217/176 241/241/176 242/242/176 218/218/176
f 218/218/177 242/242/177 243/243/177 219/219/177
f 219/219/178 243/243/178 244/244/178 220/220/178
f 220/220/179 244/244/179 245/245/179 221/221/179
f 221/221/180 245/245/180 246/246/180 222/222/180
f 222/222/181 246/246/181 247/247/181 223/223/181
f 223/223/182 247/247/182 248/248/182 224/224/182
f 4/4/183 5/5/183 233/233/183 209/209/183
f 209/209/184 233/233/184 234/234/184 210/210/184
f 210/210/185 234/234/185 235/235/185 211/211/185
f 211/211/186 235/235/186 236/236/186 212/212/186
f 212/212/187 236/236/187 237/237/187 213/213/187
f 213/213/188 237/237/188 238/238/188 214/214/188
f 214/214/189 238/238/189 239/239/189 215/215/189
f 215/215/190 239/239/190 240/240/190 216/216/190
f 17/17/191 16/16/191 225/225/191 201/201/191
f 201/201/192 225/225/192 226/226/192 202/202/192
f 202/202/193 226/226/193 227/227/193 203/203/193
f 203/203/194 227/227/194 228/228/194 204/204/194
f 204/204/195 228/228/195 229/229/195 205/205/195
f 205/205/196 229/229/196 230/230/196 206/206/196
f 206/206/197 230/230/197 231/231/197 207/207/197
f 207/207/198 231/231/198 232/232/198 208/208/198
f 31/31/199 30/30/199 217/217/199 193/193/199
f 193/193/200 217/217/200 218/218/200 194/194/200
f 194/194/201 218/218/201 219/219/201 195/195/201
f 195/195/202 219/219/202 220/220/202 196/196/202
f 196/196/203 220/220/203 221/221/203 197/197/203
f 197/197/204 221/221/204 222/222/204 198/198/204
f 198/198/205 222/222/205 223/223/205 199/199/205
f 199/199/206 223/223/206 224/224/206 200/200/206
f 3/3/207 4/4/207 209/209/207 185/185/207
f 185/185/208 209/209/208 210/210/208 186/186/208
f 186/186/209 210/210/209 211/211/209 187/187/209
f 187/187/210 211/211/210 212/212/210 188/188/210
f 188/188/211 212/212/211 213/213/211 189/189/211
f 189/189/212 213/213/212 214/214/212 190/190/212
f 190/190/213 214/214/213 215/215/213 191/191/213
f 191/191/214 215/215/214 216/216/214 192/192/214
f 18/18/215 17/17/215 201/201/215 177/177/215
f 177/177/216 201/201/216 202/202/216 178/178/216
f 178/178/217 202/202/217 203/203/217 179/179/217
f 179/179/218 203/203/218 204/204/218 180/180/218
f 180/180/219 204/204/219 205/205/219 181/181/219
f 181/181/220 205/205/220 206/206/220 182/182/220
f 182/182/221 206/206/221 207/207/221 183/183/221
f 183/183/222 207/207/222 208/208/222 184/184/222
f 32/32/223 31/31/223 193/193/223 169/169/223
f 169/169/224 193/193/224 194/194/224 170/170/224
f 170/170/225 194/194/225 195/195/225 171/171/225
f 171/171/226 195/195/226 196/196/226 172/172/226
f 172/172/227 196/196/227 197/197/227 173/173/227
f 173/173/228 197/197/228 198/198/228 174/174/228
f 174/174/229 198/198/229 199/199/229 175/175/229
f 175/175/230 199/199/230 200/200/230 176/176/230
f 1/1/231 3/3/231 185/185/231 161/161/231
f 161/161/232 185/185/232 186/186/232 162/162/232
f 162/162/233 186/186/233 187/187/233 163/163/233
f 163/163/234 187/187/234 188/188/234 164/164/234
f 164/164/235 188/188/235 189/189/235 165/165/235
f 165/165/236 189/189/236 190/190/236 166/166/236
f 166/166/237 190/190/237 191/191/237 167/167/237
f 167/167/238 191/191/238 192/192/238 168/168/238
f 11/11/239 18/18/239 177/177/239 145/145/239
f 145/145/240 177/177/240 178/178/240 146/146/240
f 146/146/241 178/178/241 179/179/241 147/147/241
f 147/147/242 179/179/242 180/180/242 148/148/242
f 148/148/243 180/180/243 181/181/243 149/149/243
f 149/149/244 181/181/244 182/182/244 150/150/244
f 150/150/245 182/182/245 183/183/245 151/151/245
f 151/151/246 183/183/246 184/184/246 152/152/246
f 33/33/247 32/32/247 169/169/247 137/137/247
f 137/137/248 169/169/248 170/170/248 138/138/248
f 138/138/249 170/170/249 171/171/249 139/139/249
f 139/139/250 171/171/250 172/172/250 140/140/250
f 140/140/251 172/172/251 173/173/251 141/141/251
f 141/141/252 173/173/252 174/174/252 142/142/252
f 142/142/253 174/174/253 175/175/253 143/143/253
f 143/143/254 175/175/254 176/176/254 144/144/254
f 19/19/255 1/1/255 161/161/255 129/129/255
f 129/129/256 161/161/256 162/162/256 130/130/256
f 130/130/257 162/162/257 163/163/257 131/131/257
f 131/131/258 163/163/258 164/164/258 132/132/258
f 132/132/259 164/164/259 165/165/259 133/133/259
f 133/133/260 165/165/260 166/166/260 134/134/260
f 134/134/261 166/166/261 167/167/261 135/135/261
f 135/135/262 167/167/262 168/168/262 136/136/262
f 2/2/263 11/11/263 145/145/263 160/160/263
f 160/160/264 145/145/264 146/146/264 159/159/264
f 159/159/265 146/146/265 147/147/265 158/158/265
f 158/158/266 147/147/266 148/148/266 157/157/266
f 157/157/267 148/148/267 149/149/267 156/156/267
f 156/156/268 149/149/268 150/150/268 155/155/268
f 155/155/269 150/150/269 151/151/269 154/154/269
f 154/154/270 151/151/270 152/152/270 153/153/270
f 34/34/271 33/33/271 137/137/271 121/121/271
f 121/121/272 137/137/272 138/138/272 122/122/272
f 122/122/273 138/138/273 139/139/273 123/123/273
f 123/123/274 139/139/274 140/140/274 124/124/274
f 124/124/275 140/140/275 141/141/275 125/125/275
f 125/125/276 141/141/276 142/142/276 126/126/276
f 126/126/277 142/142/277 143/143/277 127/127/277
f 127/127/278 143/143/278 144/144/278 128/128/278
f 21/21/279 19/19/279 129/129/279 113/113/279
f 113/113/280 129/129/280 130/130/280 114/114/280
f 114/114/281 130/130/281 131/131/281 115/115/281
f 115/115/282 131/131/282 132/132/282 116/116/282
f 116/116/283 132/132/283 133/133/283 117/117/283
f 117/117/284 133/133/284 134/134/284 118/118/284
f 118/118/285 134/134/285 135/135/285 119/119/285
f 119/119/286 135/135/286 136/136/286 120/120/286
f 35/35/287 34/34/287 121/121/287 105/105/287
f 105/105/288 121/121/288 122/122/288 106/106/288
f 106/106/289 122/122/289 123/123/289 107/107/289
f 107/107/290 123/123/290 124/124/290 108/108/290
f 108/108/291 124/124/291 125/125/291 109/109/291
f 109/109/292 125/125/292 126/126/292 110/110/292
f 110/110/293 126/126/293 127/127/293 111/111/293
f 111/111/294 127/127/294 128/128/294 112/112/294
f 22/22/295 21/21/295 113/113/295 89/89/295
f 89/89/296 113/113/296 114/114/296 90/90/296
f 90/90/297 114/114/297 115/115/297 91/91/297
f 91/91/298 115/115/298 116/116/298 92/92/298
f 92/92/299 116/116/299 117/117/299 93/93/299
f 93/93/300 117/117/300 118/118/300 94/94/300
f 94/94/301 118/118/301 119/119/301 95/95/301
f 95/95/302 119/119/302 120/120/302 96/96/302
f 36/36/303 35/35/303 105/105/303 73/73/303
f 73/73/304 105/105/304 106/106/304 74/74/304
f 74/74/305 106/106/305 107/107/305 75/75/305
f 75/75/306 107/107/306 108/108/306 76/76/306
f 76/76/307 108/108/307 109/109/307 77/77/307
f 77/77/308 109/109/308 110/110/308 78/78/308
f 78/78/309 110/110/309 111/111/309 79/79/309
f 79/79/310 111/111/310 112/112/310 80/80/310
f 23/23/311 22/22/311 89/89/311 104/104/311
f 104/104/312 89/89/312 90/90/312 103/103/312
f 103/103/313 90/90/313 91/91/313 102/102/313
f 102/102/314 91/91/314 92/92/314 101/101/314
f 101/101/315 92/92/315 93/93/315 100/100/315
f 100/100/316 93/93/316 94/94/316 99/99/316
f 99/99/317 94/94/317 95/95/317 98/98/317
f 98/98/318 95/95/318 96/96/318 97/97/318
f 29/29/319 36/36/319 73/73/319 88/88/319
f 88/88/320 73/73/320 74/74/320 87/87/320
f 87/87/321 74/74/321 75/75/321 86/86/321
f 86/86/322 75/75/322 76/76/322 85/85/322
f 85/85/323 76/76/323 77/77/323 84/84/323
f 84/84/324 77/77/324 78/78/324 83/83/324
f 83/83/325 78/78/325 79/79/325 82/82/325
f 82/82/326 79/79/326 80/80/326 81/81/326
